<?xml version="1.0" encoding="UTF-8" standalone="no"?>
<svg
   width="100mm"
   height="100mm"
   viewBox="0 0 100 100"
   version="1.1"
   id="svg8"
   inkscape:version="1.4 (86a8ad7, 2024-10-11)"
   sodipodi:docname="cerealizer_logo.svg"
   inkscape:export-filename="/home/qbinary/Projects/cerealizer-meta/logos/cerealizer/cerealizer_logo_v1_1024.png"
   inkscape:export-xdpi="260.09601"
   inkscape:export-ydpi="260.09601"
   xmlns:inkscape="http://www.inkscape.org/namespaces/inkscape"
   xmlns:sodipodi="http://sodipodi.sourceforge.net/DTD/sodipodi-0.dtd"
   xmlns="http://www.w3.org/2000/svg"
   xmlns:svg="http://www.w3.org/2000/svg"
   xmlns:rdf="http://www.w3.org/1999/02/22-rdf-syntax-ns#"
   xmlns:cc="http://creativecommons.org/ns#"
   xmlns:dc="http://purl.org/dc/elements/1.1/">
  <defs
     id="defs2" />
  <sodipodi:namedview
     id="base"
     pagecolor="#3d342e"
     bordercolor="#666666"
     borderopacity="1.0"
     inkscape:pageopacity="1"
     inkscape:pageshadow="2"
     inkscape:zoom="2.8649134"
     inkscape:cx="177.6668"
     inkscape:cy="255.85416"
     inkscape:document-units="mm"
     inkscape:current-layer="g854"
     inkscape:document-rotation="0"
     showgrid="false"
     showguides="true"
     inkscape:guide-bbox="true"
     fit-margin-top="64"
     fit-margin-right="64"
     fit-margin-left="64"
     lock-margins="false"
     fit-margin-bottom="64"
     scale-x="1"
     inkscape:window-width="1920"
     inkscape:window-height="1002"
     inkscape:window-x="-8"
     inkscape:window-y="-8"
     inkscape:window-maximized="1"
     inkscape:showpageshadow="2"
     inkscape:pagecheckerboard="0"
     inkscape:deskcolor="#d1d1d1" />
  <metadata
     id="metadata5">
    <rdf:RDF>
      <cc:Work
         rdf:about="">
        <dc:format>image/svg+xml</dc:format>
        <dc:type
           rdf:resource="http://purl.org/dc/dcmitype/StillImage" />
        <dc:title />
      </cc:Work>
    </rdf:RDF>
  </metadata>
  <g
     inkscape:label="Layer 1"
     inkscape:groupmode="layer"
     id="layer1"
     transform="translate(13.999992,21.830896)">
    <g
       id="g4288"
       transform="translate(0,-24.762264)">
      <g
         id="g4301"
         transform="translate(-31.5,-12.5)">
        <g
           id="g854"
           transform="translate(-12.5,-11.378787)">
          <path
             sodipodi:type="star"
             style="fill:#b36d41;fill-opacity:1;fill-rule:evenodd;stroke-width:0.264583"
             id="path14"
             sodipodi:sides="5"
             sodipodi:cx="76.515244"
             sodipodi:cy="45.769905"
             sodipodi:r1="10.874895"
             sodipodi:r2="5.4374475"
             sodipodi:arg1="0.85091902"
             sodipodi:arg2="1.4792376"
             inkscape:flatsided="false"
             inkscape:rounded="0"
             inkscape:randomized="0"
             d="m 83.684979,53.946593 -6.672585,-2.762016 -6.058073,3.930888 0.564891,-7.199516 -5.610543,-4.546859 7.021707,-1.687529 2.590566,-6.741001 3.774763,6.156565 7.211601,0.380692 -4.688775,5.492496 z"
             inkscape:transform-center-x="0.28435881"
             inkscape:transform-center-y="-0.69653692"
             transform="matrix(0.9254744,0,0,0.93886341,20.792211,24.580694)" />
          <path
             sodipodi:type="star"
             style="fill:#b36d41;fill-opacity:1;fill-rule:evenodd;stroke-width:0.264583"
             id="path16"
             sodipodi:sides="6"
             sodipodi:cx="94.672745"
             sodipodi:cy="64.893326"
             sodipodi:r1="10.762617"
             sodipodi:r2="5.3813086"
             sodipodi:arg1="1.6644246"
             sodipodi:arg2="2.1880234"
             inkscape:flatsided="true"
             inkscape:rounded="0"
             inkscape:randomized="0"
             d="m 93.666531,75.608803 -8.776769,-6.229145 1.006214,-10.715478 9.782982,-4.486332 8.776772,6.229146 -1.00622,10.715477 z"
             inkscape:transform-center-x="0.24862675"
             inkscape:transform-center-y="0.55554055"
             transform="matrix(0.79959695,0,0,0.76361033,2.3523756,-2.35535)" />
          <path
             sodipodi:type="star"
             style="fill:#b36d41;fill-opacity:1;fill-rule:evenodd;stroke-width:0.264583"
             id="path18"
             sodipodi:sides="3"
             sodipodi:cx="62.052124"
             sodipodi:cy="63.638142"
             sodipodi:r1="12.367732"
             sodipodi:r2="14.884132"
             sodipodi:arg1="0.21981488"
             sodipodi:arg2="1.2670125"
             inkscape:flatsided="true"
             inkscape:rounded="0"
             inkscape:randomized="0"
             d="M 74.122262,66.334913 53.681583,72.742802 58.352528,51.83671 Z"
             transform="matrix(0.76450996,0,0,0.69254987,17.598643,22.22218)" />
          <path
             id="rect3456"
             style="fill:#b36d41;fill-opacity:1;fill-rule:evenodd;stroke-width:0.223913"
             d="M 49.999821 80.00019 A 30 30 0 0 0 64.999939 105.98052 A 30 30 0 0 0 69.355229 108.00003 L 66.814815 108.00003 C 64.985259 108.00003 63.512691 109.47312 63.512691 111.30267 C 63.512691 113.13223 64.985259 114.6048 66.814815 114.6048 L 93.184782 114.6048 C 95.014338 114.6048 96.487423 113.13223 96.487423 111.30267 C 96.487423 109.47312 95.014338 108.00003 93.184782 108.00003 L 90.644885 108.00003 A 30 30 0 0 0 95.000175 105.98052 A 30 30 0 0 0 109.99978 80.00019 L 49.999821 80.00019 z " />
        </g>
      </g>
    </g>
  </g>
</svg>
